"birthWeight","maternalSmoker"
145,TRUE
90,TRUE
82,TRUE
98,TRUE
143,TRUE
90,TRUE
128,TRUE
130,TRUE
90,TRUE
137,TRUE
98,TRUE
111,TRUE
139,TRUE
156,TRUE
100,TRUE
87,TRUE
77,TRUE
141,TRUE
111,TRUE
99,TRUE
130,TRUE
134,TRUE
122,TRUE
83,TRUE
105,TRUE
120,TRUE
101,TRUE
92,TRUE
127,TRUE
93,TRUE
106,TRUE
125,TRUE
126,TRUE
118,TRUE
102,TRUE
133,TRUE
111,TRUE
158,TRUE
109,TRUE
128,TRUE
69,TRUE
138,TRUE
103,TRUE
120,TRUE
114,TRUE
122,TRUE
124,TRUE
90,TRUE
137,TRUE
114,TRUE
162,FALSE
99,FALSE
109,FALSE
125,FALSE
80,FALSE
100,FALSE
115,FALSE
117,FALSE
143,FALSE
123,FALSE
110,FALSE
107,FALSE
143,FALSE
102,FALSE
145,FALSE
123,FALSE
154,FALSE
113,FALSE
120,FALSE
114,FALSE
133,FALSE
153,FALSE
109,FALSE
156,FALSE
118,FALSE
149,FALSE
118,FALSE
147,FALSE
124,FALSE
112,FALSE
140,FALSE
111,FALSE
118,FALSE
93,FALSE
134,FALSE
143,FALSE
122,FALSE
140,FALSE
106,FALSE
108,FALSE
140,FALSE
141,FALSE
163,FALSE
156,FALSE
85,FALSE
77,FALSE
106,FALSE
132,FALSE
94,FALSE
102,FALSE
