"dataSet","x","y"
"dino",55.3846,97.1795
"dino",51.5385,96.0256
"dino",46.1538,94.4872
"dino",42.8205,91.4103
"dino",40.7692,88.3333
"dino",38.7179,84.8718
"dino",35.641,79.8718
"dino",33.0769,77.5641
"dino",28.9744,74.4872
"dino",26.1538,71.4103
"dino",23.0769,66.4103
"dino",22.3077,61.7949
"dino",22.3077,57.1795
"dino",23.3333,52.9487
"dino",25.8974,51.0256
"dino",29.4872,51.0256
"dino",32.8205,51.0256
"dino",35.3846,51.4103
"dino",40.2564,51.4103
"dino",44.1026,52.9487
"dino",46.6667,54.1026
"dino",50,55.2564
"dino",53.0769,55.641
"dino",56.6667,56.0256
"dino",59.2308,57.9487
"dino",61.2821,62.1795
"dino",61.5385,66.4103
"dino",61.7949,69.1026
"dino",57.4359,55.2564
"dino",54.8718,49.8718
"dino",52.5641,46.0256
"dino",48.2051,38.3333
"dino",49.4872,42.1795
"dino",51.0256,44.1026
"dino",45.3846,36.4103
"dino",42.8205,32.5641
"dino",38.7179,31.4103
"dino",35.1282,30.2564
"dino",32.5641,32.1795
"dino",30,36.7949
"dino",33.5897,41.4103
"dino",36.6667,45.641
"dino",38.2051,49.1026
"dino",29.7436,36.0256
"dino",29.7436,32.1795
"dino",30,29.1026
"dino",32.0513,26.7949
"dino",35.8974,25.2564
"dino",41.0256,25.2564
"dino",44.1026,25.641
"dino",47.1795,28.718
"dino",49.4872,31.4103
"dino",51.5385,34.8718
"dino",53.5897,37.5641
"dino",55.1282,40.641
"dino",56.6667,42.1795
"dino",59.2308,44.4872
"dino",62.3077,46.0256
"dino",64.8718,46.7949
"dino",67.9487,47.9487
"dino",70.5128,53.718
"dino",71.5385,60.641
"dino",71.5385,64.4872
"dino",69.4872,69.4872
"dino",46.9231,79.8718
"dino",48.2051,84.1026
"dino",50,85.2564
"dino",53.0769,85.2564
"dino",55.3846,86.0256
"dino",56.6667,86.0256
"dino",56.1538,82.9487
"dino",53.8462,80.641
"dino",51.2821,78.718
"dino",50,78.718
"dino",47.9487,77.5641
"dino",29.7436,59.8718
"dino",29.7436,62.1795
"dino",31.2821,62.5641
"dino",57.9487,99.4872
"dino",61.7949,99.1026
"dino",64.8718,97.5641
"dino",68.4615,94.1026
"dino",70.7692,91.0256
"dino",72.0513,86.4103
"dino",73.8462,83.3333
"dino",75.1282,79.1026
"dino",76.6667,75.2564
"dino",77.6923,71.4103
"dino",79.7436,66.7949
"dino",81.7949,60.2564
"dino",83.3333,55.2564
"dino",85.1282,51.4103
"dino",86.4103,47.5641
"dino",87.9487,46.0256
"dino",89.4872,42.5641
"dino",93.3333,39.8718
"dino",95.3846,36.7949
"dino",98.2051,33.718
"dino",56.6667,40.641
"dino",59.2308,38.3333
"dino",60.7692,33.718
"dino",63.0769,29.1026
"dino",64.1026,25.2564
"dino",64.359,24.1026
"dino",74.359,22.9487
"dino",71.2821,22.9487
"dino",67.9487,22.1795
"dino",65.8974,20.2564
"dino",63.0769,19.1026
"dino",61.2821,19.1026
"dino",58.7179,18.3333
"dino",55.1282,18.3333
"dino",52.3077,18.3333
"dino",49.7436,17.5641
"dino",47.4359,16.0256
"dino",44.8718,13.718
"dino",48.7179,14.8718
"dino",51.2821,14.8718
"dino",54.1026,14.8718
"dino",56.1538,14.1026
"dino",52.0513,12.5641
"dino",48.7179,11.0256
"dino",47.1795,9.8718
"dino",46.1538,6.0256
"dino",50.5128,9.4872
"dino",53.8462,10.2564
"dino",57.4359,10.2564
"dino",60,10.641
"dino",64.1026,10.641
"dino",66.9231,10.641
"dino",71.2821,10.641
"dino",74.359,10.641
"dino",78.2051,10.641
"dino",67.9487,8.718
"dino",68.4615,5.2564
"dino",68.2051,2.9487
"dino",37.6923,25.7692
"dino",39.4872,25.3846
"dino",91.2821,41.5385
"dino",50,95.7692
"dino",47.9487,95
"dino",44.1026,92.6923
"away",32.3311102266,61.411101248
"away",53.4214628807,26.1868803879
"away",63.92020226,30.8321939163
"away",70.2895057187,82.5336485877
"away",34.1188302357,45.7345513203
"away",67.6707164012,37.110947969
"away",53.2591294055,97.4757710964
"away",63.5149808671,25.1000785788
"away",67.9805388133,80.9571652197
"away",67.3724659005,29.720400203
"away",15.5607495229,80.0656402858
"away",71.7907676942,71.0654666627
"away",70.2425464362,24.1095975542
"away",64.9374355444,81.5542049945
"away",62.2135245453,21.4758389969
"away",67.2694004772,18.7089683725
"away",40.5701970446,79.3729634752
"away",74.7411813341,21.1016372041
"away",71.7683189223,20.0110618423
"away",76.1669198143,75.9361704048
"away",65.6236574431,15.5828033531
"away",50.8506336394,13.9876016304
"away",33.0240700249,24.4678303872
"away",39.7063261674,84.2752871038
"away",45.5964849542,9.76334884943
"away",42.9680469104,17.9454583961
"away",52.4944067819,16.0511142003
"away",46.0822757831,23.1104578154
"away",74.2477082092,20.314187812
"away",64.5682641863,83.6396338956
"away",74.0216939058,76.1282745076
"away",62.3911805626,5.62307076073
"away",74.189036683,68.1335832223
"away",28.2367819396,56.1395964513
"away",75.7719387944,69.8292300322
"away",75.8552294691,62.5170442862
"away",65.9708570175,72.7448559954
"away",21.7780404779,6.61662530728
"away",67.7597962473,72.4212015285
"away",78.6171953363,52.5752573142
"away",68.5077081898,15.4569189652
"away",74.8850211598,25.4166063231
"away",66.4549036599,19.8366286542
"away",77.3178020985,48.3983464352
"away",58.9124603193,75.6677562173
"away",57.617447817,8.19480060319
"away",76.0882257967,59.6799300235
"away",57.4660505497,1.50441817488
"away",79.4283834934,45.2107942872
"away",76.3565221496,10.4182411281
"away",64.4050752632,78.5841760758
"away",40.6350418091,73.3947503698
"away",43.9498645857,75.9587156671
"away",30.9962205791,71.694404938
"away",68.2307689907,80.8725016628
"away",72.0463894612,12.9180067349
"away",46.5927679682,84.9723827774
"away",49.2572183396,81.8814032306
"away",42.7817612539,12.9911884302
"away",65.475952195,14.2745856444
"away",71.9650826544,17.7102359443
"away",32.1464623358,43.4817094425
"away",31.8384976954,71.8121653901
"away",31.0052582572,40.682503007
"away",80.4708943189,49.5021483467
"away",71.9641671122,41.8742826668
"away",78.0794214417,93.1333167652
"away",41.6775957748,30.2012640846
"away",65.953595185,31.1474060835
"away",62.9344593731,31.9163906992
"away",64.3737979844,28.8625834061
"away",72.5093283599,39.5401302526
"away",30.0522898741,96.6175423534
"away",28.0033242354,46.6721919544
"away",75.4012268619,88.6390766207
"away",38.9800154218,87.322160691
"away",65.2199135479,84.6829549336
"away",73.0539899616,29.3808085571
"away",34.3983616372,59.5444469033
"away",43.4904501336,40.782542065
"away",55.138737967,30.7257603575
"away",43.6843934333,32.8230098696
"away",35.9036097344,91.1118630801
"away",45.3780188805,29.1692166544
"away",39.7774828713,43.75581895
"away",38.6644611569,33.3172384774
"away",39.0440366877,84.6760108316
"away",91.6399614428,79.4066030605
"away",47.4881326771,85.3899333808
"away",44.5902125769,22.0340116412
"away",39.0896145478,70.4661940802
"away",42.2293783752,19.9140684075
"away",37.0003871448,60.264279248
"away",39.0520864793,70.6525028457
"away",37.4884147432,60.8144048511
"away",69.3595594592,65.5213545959
"away",43.542775926,62.4603112824
"away",39.8112302539,65.3348328092
"away",70.0689259404,7.59346560899
"away",70.0405435824,77.1438066024
"away",39.505789079,74.8516272173
"away",62.5168908529,66.4847322418
"away",72.1399254065,0.0151193251552
"away",45.2515760666,70.0034213192
"away",42.0633045627,2.33519661206
"away",36.3556951539,6.0058486497
"away",30.3918276596,42.75961287
"away",36.4490038543,50.5462690659
"away",40.467576002,60.0275120878
"away",81.7246168002,6.03754484635
"away",48.8231974964,76.6353305783
"away",35.6205617651,57.2860155789
"away",50.5839631148,71.8066161014
"away",61.8564651063,71.7927431642
"away",39.3237560262,59.3008196656
"away",42.1856791429,66.0348978235
"away",30.8469189898,37.3416401041
"away",29.3462004281,42.1487418312
"away",82.1105579783,1.21055166293
"away",38.3020058088,60.0177857932
"away",56.5841530218,70.512514809
"away",33.3393742865,0.5091067352
"away",78.7742390407,35.4841012146
"away",27.9226442446,25.9868781844
"away",71.6978651182,10.8681445111
"away",74.1383313856,49.1739189791
"away",32.579020066,1.80811559665
"away",59.83218542,69.1525081443
"away",35.0306285457,12.5366493416
"away",74.3001198284,42.4770945921
"away",63.2501970628,65.9524861966
"away",34.1730737648,25.6936743092
"away",40.9138319319,38.5590195509
"away",62.8332930874,62.5108942269
"away",42.4767923803,56.7312899691
"away",52.0334562787,64.5666620298
"away",48.9070429644,74.2877488252
"away",59.8518383854,72.9583909677
"away",48.9604602016,72.6295257275
"away",46.8448551673,36.7917136918
"away",39.9630215796,42.9449148487
"away",66.704943997,32.0150954299
"star",58.2136082599,91.881891513
"star",58.1960536923,92.2149886482
"star",58.7182307185,90.310532087
"star",57.27837287,89.9076067166
"star",58.082020494,92.0081450101
"star",57.4894477748,88.0852855629
"star",28.088741319,63.5107944263
"star",28.0854682136,63.5901969481
"star",28.087273053,63.1232828116
"star",27.5780252176,62.8210386566
"star",27.7799191139,63.518147517
"star",28.5889998149,63.0240805653
"star",28.7391414969,62.7208638859
"star",27.0246032407,62.9018588649
"star",28.8013366963,63.389040388
"star",27.186463838,63.5587296478
"star",29.2851466002,63.3836058254
"star",39.4029453026,51.1508571967
"star",28.8113284396,61.3578540576
"star",34.3039579069,56.5421259093
"star",29.6027609801,60.157346722
"star",49.1161568603,63.6600006211
"star",39.6175458263,62.9251879574
"star",43.23308466,63.1652187223
"star",64.8927879422,65.8141767574
"star",62.4901493154,74.5842896072
"star",68.9880844294,63.232147305
"star",62.1056186306,75.9908707599
"star",32.4618467439,62.8819029189
"star",41.3272006535,49.0702512739
"star",44.0071499323,46.4496737846
"star",44.0740606888,34.5532038906
"star",44.0013152386,33.9042073544
"star",45.0063004454,38.2990195507
"star",44.4438406096,36.0190833012
"star",42.1787133986,26.492119482
"star",44.0445656189,35.6622382764
"star",41.6404540171,27.0930954213
"star",41.9383300069,24.9915229793
"star",44.0539275103,33.5563924949
"star",39.2067193308,51.5337156971
"star",28.7044492315,61.7775254006
"star",31.7086628996,58.837754374
"star",42.8117114739,30.0204484197
"star",43.300614891,31.5264261979
"star",40.3986329069,16.3470083822
"star",40.4356915763,20.2326706762
"star",40.9365466658,16.9130048364
"star",39.6615736653,15.609355577
"star",40.899259175,20.7985289466
"star",41.9686168283,26.4970725985
"star",40.3834058238,21.3912255247
"star",56.5381264538,32.4442454697
"star",52.9706912828,29.0401966941
"star",54.6209525885,30.3445244537
"star",65.0990443941,27.2415575588
"star",63.0559909076,29.7090956748
"star",70.9601362323,41.2595012867
"star",69.8958192404,43.4537592655
"star",70.5958928563,41.9647438672
"star",69.6470214273,44.044445022
"star",77.392982494,63.3714590552
"star",64.4007871926,67.4487184472
"star",63.8689598271,70.2137388333
"star",56.5944213157,86.9270062202
"star",56.5313372853,87.4998110713
"star",59.6521583697,87.8094615921
"star",56.6365087005,85.637495556
"star",58.6722880025,90.077160307
"star",58.2216127264,90.4110187715
"star",57.9146644768,89.9538027677
"star",55.3155090581,80.2518606944
"star",54.5757285877,77.5362884724
"star",54.4130936504,78.2290865878
"star",55.0745059041,79.8175464166
"star",29.4329605156,60.8017765444
"star",29.4226860665,63.0684648229
"star",29.0056141576,63.3907513334
"star",58.4618385916,90.2653263904
"star",57.997804739,92.1599086113
"star",57.5494740761,90.7489065581
"star",59.5299284566,88.3272741451
"star",58.2493910631,92.1296814778
"star",58.0245140126,91.6944211685
"star",58.3821244904,90.5534760692
"star",62.5667590405,77.7439347591
"star",72.1758243064,63.1289294176
"star",79.4727615693,63.4086861199
"star",80.3577008812,63.2954375404
"star",78.7572361375,53.3326200111
"star",82.5402395934,56.5410522935
"star",86.4358971909,59.7927618087
"star",79.4886844186,53.6516742641
"star",81.5304203188,56.0253645659
"star",79.1867885665,53.2347918468
"star",77.8990579454,51.8224583343
"star",75.1307142075,23.3724419733
"star",76.0580137544,16.3837496882
"star",57.6146743876,33.8224476502
"star",56.1713975295,32.1179887719
"star",66.2878905956,26.1171097453
"star",67.8817196169,24.2360184109
"star",64.0280813016,27.6726855125
"star",77.4966517463,14.9485235577
"star",77.6346517616,14.461853927
"star",77.8637264289,14.6106776491
"star",77.3381581659,15.890054658
"star",76.1804165329,15.9125737458
"star",77.2526510945,15.1515170246
"star",77.4133752817,15.2219279762
"star",76.7318493982,16.2168461441
"star",49.4711054118,25.0630193062
"star",42.4765399431,18.3384735636
"star",43.5951158622,19.9942009773
"star",50.3399696652,26.4713966117
"star",40.7489802561,16.1821416622
"star",38.3865255803,14.5802151464
"star",38.4040152085,14.4519484496
"star",38.7642788913,14.3655904744
"star",41.4701423265,17.2780334445
"star",47.1554048146,22.3779325323
"star",39.5825667453,17.6484528361
"star",41.7402438167,17.8293243101
"star",39.3118718889,15.6407169743
"star",41.6798476925,17.7459190133
"star",39.0874644519,15.1223039378
"star",41.4815028637,18.0474374446
"star",77.6060865492,15.1628725383
"star",75.9826615205,16.3069223786
"star",76.9457572424,15.858478334
"star",77.5437200743,15.253949149
"star",77.5847398447,15.8300393854
"star",76.8223042562,15.5951653195
"star",77.3485716647,15.7745292395
"star",77.5731526867,14.7806458332
"star",77.9726106776,14.9556987461
"star",41.5289197586,24.9164251896
"star",43.7225508034,19.0773278036
"star",79.3260781751,52.9003912897
"star",56.6639740815,87.9401250067
"star",57.8217892319,90.6931665489
"star",58.2431718991,92.1043278652
"circle",55.9930301513,79.2772636977
"circle",50.0322537946,79.013071199
"circle",51.2884586593,82.4359398425
"circle",51.1705368873,79.1652941091
"circle",44.3779145287,78.1646280036
"circle",45.0102700721,77.8808631153
"circle",48.559816719,78.7883706035
"circle",42.1422682922,76.8806345544
"circle",41.0269715735,76.4095884613
"circle",34.5753090115,72.7248411845
"circle",31.1686007236,69.2454213193
"circle",32.6442540714,70.7325550334
"circle",26.6666456539,62.9809712052
"circle",26.4592623274,62.6346733709
"circle",25.5380076465,60.6302361093
"circle",26.3207111933,62.3962811186
"circle",26.1633874648,62.0268148985
"circle",25.2137904611,60.2733986018
"circle",26.8595295604,63.1418346727
"circle",31.7606691716,69.7976553936
"circle",39.7932905744,75.8079642168
"circle",45.6174391854,78.1199702277
"circle",53.7714606827,79.3029316435
"circle",56.4514336733,79.2471070208
"circle",66.0937201989,77.0178182606
"circle",56.9258394194,79.2063186226
"circle",58.9882538467,78.9172589554
"circle",57.9022660533,79.0808678187
"circle",64.8128669568,77.4869389235
"circle",60.3497935166,78.7294458673
"circle",48.890555756,16.8065435154
"circle",47.549506348,17.0714045245
"circle",30.8894308257,26.3290372348
"circle",28.972835724,29.0504689185
"circle",35.1613607523,22.7868496473
"circle",45.8703691685,17.4893933655
"circle",32.8314206076,24.7975381459
"circle",39.4855747899,20.0330500489
"circle",33.4461829314,24.1906434075
"circle",21.8635812756,46.0525933457
"circle",25.1658708449,35.7666139539
"circle",22.9594789762,51.2877067934
"circle",25.5860552415,60.8465833585
"circle",26.3143100672,33.2971681038
"circle",33.037301251,24.5644624921
"circle",36.4688894772,21.8761144725
"circle",26.5135531009,32.9187498178
"circle",36.0270912125,22.1954385395
"circle",42.6810404129,18.5425361977
"circle",45.0410771273,17.7345177303
"circle",47.3524164557,17.1347454264
"circle",53.8461940322,16.3873180961
"circle",55.1296393835,16.3532468711
"circle",52.1881199617,16.4182174652
"circle",58.6726630845,16.6633724322
"circle",82.1443116037,33.1952218669
"circle",75.6865711383,24.7415103908
"circle",85.344964503,52.886419866
"circle",83.8446535127,58.6160602305
"circle",85.66476066,45.5427527692
"circle",77.931004934,68.6900618808
"circle",73.0318330209,73.12057473
"circle",70.1028044999,75.6832068542
"circle",57.1446946889,79.1941025922
"circle",46.9624619942,78.6665589963
"circle",50.5649338128,79.0772985529
"circle",53.7196765696,79.306936167
"circle",54.2002323226,79.3250023354
"circle",47.875198343,78.6758534295
"circle",51.4734585149,79.1598669963
"circle",52.7512222162,79.2936599344
"circle",48.5622230047,78.7823835275
"circle",53.0812416908,79.2972507654
"circle",56.475383374,79.1678400979
"circle",49.570911405,79.0381238831
"circle",37.6277032991,74.5575043418
"circle",32.2637000863,70.3166389012
"circle",32.542380336,70.7024172063
"circle",52.8250171923,85.5781338795
"circle",58.5282895407,78.9787042541
"circle",56.265834263,79.2529394854
"circle",57.0758924193,79.1939225382
"circle",54.2564023808,79.3138648504
"circle",62.6856712475,78.1747432719
"circle",68.0856058616,76.1123175001
"circle",65.1181219632,77.3991884543
"circle",68.7456312971,75.7900554548
"circle",63.0902251412,78.041409495
"circle",77.2045893204,69.3121497658
"circle",82.0339084758,62.6818697859
"circle",81.5779459183,63.8949255005
"circle",85.1801432805,53.7816766607
"circle",84.2868249936,57.2561680896
"circle",85.6224867126,45.0241658646
"circle",85.6044990156,50.7623379055
"circle",84.4247858276,38.761410164
"circle",85.570985078,44.5600964397
"circle",84.6267242006,39.4870775084
"circle",73.3961549252,22.8162479426
"circle",73.5074477338,22.8569887644
"circle",63.3564881135,17.7240688424
"circle",72.9590468722,22.5114998325
"circle",64.0208416469,17.8835812521
"circle",61.124463241,17.1163533592
"circle",75.6742073297,24.7825009657
"circle",69.5135831574,20.2793578927
"circle",58.5721354669,16.642703808
"circle",70.9819409865,21.1458881039
"circle",65.2230303973,18.3971951223
"circle",65.3150439093,18.3337482986
"circle",64.0102406778,17.9244781912
"circle",57.1409359294,16.5986105437
"circle",56.3651532552,16.3265463742
"circle",43.046183241,18.4025593948
"circle",52.0817555582,16.4538745312
"circle",42.8790365154,18.4894110252
"circle",51.5669948027,16.4857136372
"circle",58.8391251216,16.6376352154
"circle",60.7557891374,17.0332315064
"circle",54.7611561181,16.3661890954
"circle",53.5699050003,16.3397125506
"circle",48.9146182416,16.7986370826
"circle",52.6461373069,16.3848363836
"circle",49.8384929905,16.6763302777
"circle",52.6840664009,16.4079627826
"circle",65.8072190346,18.1407649473
"circle",60.6739209233,17.0518023644
"circle",63.394712866,17.7005351354
"circle",64.8020094467,18.2168786335
"circle",65.0259398087,18.2878245002
"circle",65.7555515404,18.5162158303
"circle",69.9677341245,20.5389887758
"circle",68.8927840241,20.0324488429
"circle",61.8265465579,17.2696554452
"circle",60.7879700808,17.0462048583
"circle",61.9156096372,17.2821912228
"circle",45.0289975331,17.7244473049
"circle",39.9213628084,19.7018495281
"circle",84.7942778751,55.5686503735
"circle",55.6629587449,83.3564796243
"circle",50.4922475132,78.997532065
"circle",51.4671011416,79.2018445773
